{
  "library": "spring-boot",
  "serializationLibrary": "jackson",
  "useSpringBoot3": "true",
  "useJakartaEe": "true",
  "enumPropertyNaming" : "UPPERCASE",
  "typeMappings": {
    "kotlin.float": "java.math.BigDecimal",
    "kotlin.Double": "java.math.BigDecimal",
    "date": "java.time.LocalDate",
    "date-time": "java.time.Instant",
    "java.time.OffsetDateTime": "java.time.Instant",
    "OffsetDateTime": "java.time.Instant"
  }
}
